*.settings
*.project
*/*.svn/*
.git*
*/tests/*
*/Tests/*
*/test-suite/*

exclude.lst
*.bat

app/Resources/doc/*
app/logs/*
composer.phar
app/config/parameters.yml
app/phpunit.xml
app/Resources/db/test.db
web/uploads/*
web/media/cache/*
*.php~

.idea/*
app/cache/*
logs/*
cache/*
web/upload/*
web/uploads/stores/*zip.sh

web/app_dev.php
web/config.php

report/

/*.md